11
30
86
144
339
445
452
520
555
561
577
609
695
714
723
743
755
803
813
832
834
871
904
930
950
997
1024
1024
1028
1055
1071
1080
1105
1105
1172
1183
1185
1186
1224
1241
1369
1475
1530
1575
1581
1583
1646
1807
1838
1917
1957
1962
1976
2019
2058
2110
2165
2207
2215
2223
2293
2427
2429
2459
2496
2514
2519
2536
2542
2567
2571
2588
2602
2674
2734
2776
2786
2794
2819
2821
2825
2828
2867
2924
2946
2975
3089
3099
3121
3123
3138
3222
3237
3267
3267
3268
3419
3422
3494
3519
3556
3567
3569
3589
3595
3617
3643
3650
3698
3702
3704
3709
3727
3746
3765
3890
3909
3920
3940
3970
3970
3983
3997
4006
4058
4098
4102
4120
4168
4179
4380
4433
4443
4449
4467
4475
4498
4514
4631
4676
4685
4685
4705
4737
4782
4789
4933
4940
4974
5008
5021
5096
5135
5136
5184
5188
5211
5211
5222
5254
5365
5390
5393
5402
5409
5449
5462
5469
5510
5630
5660
5756
5785
5806
5815
5833
5975
6002
6022
6084
6103
6168
6170
6199
6224
6330
6350
6350
6417
6449
6510
6573
6632
6658
6686
6696
6697
6733
6744
6768
6789
6810
6846
6885
6919
6922
6967
7049
7053
7077
7084
7102
7149
7185
7210
7264
7268
7287
7316
7355
7377
7425
7428
7439
7445
7453
7479
7488
7490
7524
7560
7567
7647
7687
7758
7771
7828
7854
7906
7939
7950
7967
8031
8081
8148
8150
8185
8206
8233
8268
8311
8356
8547
8561
8567
8627
8650
8675
8686
8694
8701
8720
8722
8859
8891
8892
8913
8914
8924
8926
9008
9058
9088
9091
9119
9146
9213
9353
9354
9368
9407
9423
9473
9508
9549
9572
9700
9706
9759
9767
9794
9823
9836
9901
9904
9933
10001
10028
10037
10127
10177
10197
10212
10213
10232
10236
10297
10316
10329
10330
10446
10449
10500
10514
10521
10595
10610
10620
10624
10627
10640
10665
10704
10751
10758
10776
10798
10834
10842
10855
10885
10886
10889
10889
10922
10986
10996
11003
11017
11020
11073
11101
11102
11129
11142
11177
11205
11220
11289
11309
11321
11376
11394
11460
11469
11487
11488
11491
11500
11526
11541
11547
11554
11608
11634
11639
11641
11649
11666
11756
11777
11789
11833
11870
11877
11882
11886
11893
11903
11922
11943
11957
11973
11999
12009
12025
12030
12041
12114
12148
12149
12184
12226
12272
12290
12306
12332
12360
12390
12392
12406
12423
12455
12456
12476
12553
12554
12569
12603
12615
12675
12700
12794
12846
12856
12887
12902
12909
12936
12941
13013
13014
13066
13088
13089
13093
13096
13134
13137
13221
13233
13323
13345
13405
13462
13469
13560
13648
13655
13695
13737
13744
13752
13777
13793
13844
13872
13875
13887
14002
14025
14118
14176
14182
14230
14259
14267
14312
14375
14386
14486
14513
14524
14615
14685
14691
14692
14711
14739
14755
14781
14846
14913
15056
15086
15087
15099
15123
15170
15202
15224
15233
15270
15300
15302
15308
15331
15385
15385
15417
15438
15447
15554
15591
15592
15606
15629
15661
15701
15828
15835
15868
15871
15929
15935
15966
15992
16006
16049
16053
16073
16090
16149
16181
16197
16220
16261
16267
16275
16278
16296
16306
16321
16329
16349
16371
16464
16465
16468
16546
16593
16624
16626
16627
16630
16653
16705
16750
16762
16777
16805
16812
16834
16899
16901
16989
16989
16990
16998
17009
17063
17099
17173
17187
17216
17278
17329
17329
17342
17409
17444
17447
17471
17474
17496
17519
17532
17568
17625
17820
17844
17849
17849
17952
17984
18041
18086
18104
18201
18237
18394
18414
18422
18451
18499
18502
18511
18528
18554
18586
18599
18680
18727
18761
18778
18797
18873
18959
18962
19021
19063
19070
19094
19096
19108
19111
19148
19168
19226
19240
19264
19311
19350
19387
19468
19539
19566
19614
19640
19674
19780
19803
19834
19844
19857
19875
19925
19951
19995
20003
20077
20081
20098
20241
20270
20356
20362
20375
20424
20424
20496
20545
20573
20611
20635
20793
20798
20804
20804
20817
20819
20830
20857
20868
20871
20874
20982
21013
21074
21076
21115
21142
21181
21198
21201
21240
21258
21280
21290
21298
21320
21334
21368
21371
21377
21379
21379
21427
21447
21479
21501
21512
21513
21594
21599
21626
21647
21768
21779
21809
21818
21821
21857
21909
21917
21928
21943
21954
21995
22009
22044
22079
22092
22136
22171
22208
22234
22399
22401
22442
22461
22473
22486
22517
22528
22581
22601
22612
22626
22638
22662
22682
22683
22766
22783
22789
22808
22819
22847
22848
22860
22872
23039
23041
23047
23078
23116
23133
23143
23162
23191
23218
23261
23265
23278
23351
23376
23378
23448
23454
23461
23467
23560
23591
23593
23595
23665
23698
23726
23749
23770
23770
23781
23785
23856
23871
23891
23980
24011
24025
24081
24244
24255
24255
24322
24366
24369
24387
24396
24403
24478
24578
24585
24607
24614
24642
24694
24732
24760
24762
24839
24876
24881
24907
24962
24964
24975
25004
25077
25097
25118
25179
25240
25254
25280
25370
25463
25480
25492
25511
25534
25550
25592
25632
25703
25748
25784
25967
26068
26071
26088
26181
26191
26197
26200
26228
26291
26355
26365
26368
26400
26420
26454
26509
26520
26534
26688
26690
26697
26817
26826
26860
26933
26987
27063
27064
27105
27122
27145
27158
27209
27231
27360
27363
27364
27419
27457
27531
27534
27535
27560
27589
27635
27699
27750
27805
27826
27855
28016
28020
28026
28166
28182
28186
28187
28221
28230
28250
28310
28323
28368
28409
28418
28508
28526
28538
28566
28731
28758
28769
28777
28832
28918
28918
28960
29044
29111
29132
29161
29163
29181
29192
29201
29268
29291
29303
29329
29399
29440
29475
29512
29606
29648
29658
29744
29761
29762
29794
29854
29861
29902
29991
30097
30107
30289
30307
30324
30346
30379
30401
30421
30482
30621
30688
30729
30764
30768
30768
30777
30805
30900
30933
31007
31034
31082
31085
31114
31129
31257
31381
31406
31425
31436
31468
31487
31526
31550
31578
31681
31687
31690
31703
31719
31746
31760
31787
31830
31851
31871
31873
31882
31907
31914
31928
31935
31957
31986
32007
32038
32082
32102
32156
32170
32340
32352
32355
32363
32401
32404
32429
32482
32506
32509
32564
32577
32666
32700
32705
32723
32764
